…
``` r
library(readr)
write_csv(teams_26, "teams_2026.csv")

conferences_26 <- read_csv('~/Desktop/Mod 3/Mod3 Sport Analytics/Sports Analytics Proj./teams_2026_final.csv')
conferences_26
```

    # A tibble: 362 × 24
       team_id abbreviation display_name      short_name mascot nickname team  color
         <dbl> <chr>        <chr>             <chr>      <chr>  <chr>    <chr> <chr>
     1    2000 ACU          Abilene Christia… Abilene C… Wildc… Abilene… Abil… 592d…
     2    2005 AF           Air Force Falcons Air Force  Falco… Air For… Air … 0035…
     3    2006 AKR          Akron Zips        Akron      Zips   Akron    Akron 0028…
     4    2010 AAMU         Alabama A&M Bull… Alabama A… Bulld… Alabama… Alab… 7900…
     5     333 ALA          Alabama Crimson … Alabama    Crims… Alabama  Alab… 9e16…
     6    2011 ALST         Alabama State Ho… Alabama St Horne… Alabama… Alab… e9a9…
     7    2016 ALCN         Alcorn State Bra… Alcorn St  Braves Alcorn … Alco… 4b00…
     8      44 AMER         American Univers… American   Eagles American Amer… c411…
     9    2026 APP          App State Mounta… App State  Mount… App Sta… App … 0000…
    10       9 ASU          Arizona State Su… Arizona St Sun D… Arizona… Ariz… 8e0c…
    # ℹ 352 more rows
    # ℹ 16 more variables: alternate_color <chr>, logo <chr>, logo_dark <chr>,
    #   logos_href_3 <chr>, logos_href_4 <chr>, logos_href_5 <chr>,
    #   logos_href_6 <chr>, logos_href_7 <chr>, logos_href_8 <chr>,
    #   logos_href_9 <chr>, logos_href_10 <chr>, logos_href_11 <chr>,
    #   logos_href_12 <chr>, logos_href_13 <chr>, logos_href_14 <chr>,
    #   conference_2025_26 <chr>

``` r
load_mbb_schedule(2026)
```

    # A tibble: 6,333 × 86
            id uid   date  attendance time_valid neutral_site conference_competition
         <int> <chr> <chr>      <dbl> <lgl>      <lgl>        <lgl>                 
     1  4.02e8 s:40… 2026…          0 FALSE      TRUE         FALSE                 
     2  4.02e8 s:40… 2026…          0 TRUE       TRUE         FALSE                 
     3  4.02e8 s:40… 2026…          0 TRUE       TRUE         FALSE                 
     4  4.02e8 s:40… 2026…          0 TRUE       TRUE         FALSE                 
     5  4.02e8 s:40… 2026…          0 TRUE       TRUE         FALSE                 
     6  4.02e8 s:40… 2026…          0 FALSE      TRUE         FALSE                 
     7  4.02e8 s:40… 2026…          0 FALSE      TRUE         FALSE                 
     8  4.02e8 s:40… 2026…          0 TRUE       TRUE         FALSE                 
     9  4.02e8 s:40… 2026…          0 TRUE       TRUE         FALSE                 
    10  4.02e8 s:40… 2026…          0 TRUE       TRUE         FALSE                 
    # ℹ 6,323 more rows
    # ℹ 79 more variables: play_by_play_available <lgl>, recent <lgl>,
    #   start_date <chr>, broadcast <chr>, highlights <chr>, notes_type <chr>,
    #   notes_headline <chr>, broadcast_market <chr>, broadcast_name <chr>,
    #   type_id <int>, type_abbreviation <chr>, venue_id <int>,
    #   venue_full_name <chr>, venue_address_city <chr>, venue_address_state <chr>,
    #   venue_indoor <lgl>, status_clock <dbl>, status_display_clock <chr>, …
…
